%YAML 1.1
%TAG !u! tag:unity3d.com,2011:
--- !u!1045 &1
EditorBuildSettings:
  m_ObjectHideFlags: 0
  serializedVersion: 2
  m_Scenes:
  - enabled: 1
    path: Assets/Scenes/00-canos_Rodrigo.unity
    guid: 7e6c3f011e0816249af87e3b14cce842
  m_configObjects: {}
